
<svg width="18px" height="18px" viewBox="0 0 18 18" version="1.1" xmlns="http://www.w3.org/2000/svg" xmlns:xlink="http://www.w3.org/1999/xlink">
    <!-- Generator: Sketch 49 (51002) - http://www.bohemiancoding.com/sketch -->
    <desc>Created with Sketch.</desc>
    <defs></defs>
    <g id="Page-1" stroke="none" stroke-width="1" fill="none" fill-rule="evenodd">
        <g id="Artboard" transform="translate(-921.000000, -262.000000)" fill="#C0CCDA">
            <g id="popup1">
                <path d="M929.999925,272.414157 L923.63594,278.77816 C923.24546,279.16868 922.6123,279.16868 922.22176,278.77816 C921.8312,278.38762 921.8312,277.75444 922.22176,277.36392 L928.585718,270.999944 L922.22176,264.63596 C921.8312,264.24544 921.8312,263.61226 922.22176,263.22174 C922.6123,262.83122 923.24546,262.83122 923.63594,263.22174 L929.999925,269.585734 L936.3639,263.22174 C936.75438,262.83122 937.38762,262.83122 937.7781,263.22174 C938.16864,263.61226 938.16864,264.24544 937.7781,264.63596 L931.414133,270.999944 L937.7781,277.36392 C938.16864,277.75444 938.16864,278.38762 937.7781,278.77816 C937.38762,279.16868 936.75438,279.16868 936.3639,278.77816 L929.999925,272.414157 Z" id="Combined-shape-4736"></path>
            </g>
        </g>
    </g>
</svg>